{
	"namespace": "SynchronyRacing",
	"displayName": "Synchrony Racing",
	"version": "4.2.4",
	"synchronyVersion": "3.1.4",
	"description": "Race against other players and compete for the fastest completion times!",
	"author": "Marukyu",
	"dependencies": {},
	"api": {"scriptPath":""},
	"tags": [],
	"name": "SynchronyRacing_io_2365699",
	"changelog": "",
	"homepageURL": "https://mod.io/g/crypt/m/SynchronyRacing",
	"modioID": "2365699",
	"modioUserID": 11398582,
	"pendingVersion": "4.2.4",
	"visibility": 0
}